<svg width="17" height="11" viewBox="0 0 17 11" fill="none" xmlns="http://www.w3.org/2000/svg">
<path d="M8.99707 0C5.36071 0 2.25525 2.28067 0.99707 5.5C2.25525 8.71933 5.36071 11 8.99707 11C12.6334 11 15.7389 8.71933 16.9971 5.5C15.7389 2.28067 12.6334 0 8.99707 0ZM8.99707 9.16667C6.9898 9.16667 5.36071 7.524 5.36071 5.5C5.36071 3.476 6.9898 1.83333 8.99707 1.83333C11.0043 1.83333 12.6334 3.476 12.6334 5.5C12.6334 7.524 11.0043 9.16667 8.99707 9.16667ZM8.99707 3.3C7.7898 3.3 6.81525 4.28267 6.81525 5.5C6.81525 6.71733 7.7898 7.7 8.99707 7.7C10.2043 7.7 11.1789 6.71733 11.1789 5.5C11.1789 4.28267 10.2043 3.3 8.99707 3.3Z" fill="#C4C4C4"/>
</svg>
