<svg width="15" height="15" viewBox="0 0 15 15" fill="none" xmlns="http://www.w3.org/2000/svg">
<path d="M7.5 2.25C8.4625 2.25 9.25 3.0375 9.25 4C9.25 4.9625 8.4625 5.75 7.5 5.75C6.5375 5.75 5.75 4.9625 5.75 4C5.75 3.0375 6.5375 2.25 7.5 2.25ZM7.5 11C9.8625 11 12.575 12.1287 12.75 12.75H2.25C2.45125 12.12 5.14625 11 7.5 11ZM7.5 0.5C5.56625 0.5 4 2.06625 4 4C4 5.93375 5.56625 7.5 7.5 7.5C9.43375 7.5 11 5.93375 11 4C11 2.06625 9.43375 0.5 7.5 0.5ZM7.5 9.25C5.16375 9.25 0.5 10.4225 0.5 12.75V14.5H14.5V12.75C14.5 10.4225 9.83625 9.25 7.5 9.25Z" fill="#11263C"/>
</svg>
