<svg width="17" height="19" viewBox="0 0 17 19" fill="none" xmlns="http://www.w3.org/2000/svg">
<path d="M13.75 10.3751H13.155L11.405 12.1251H13.0763L14.625 13.8751H2.375L3.9325 12.1251H5.72625L3.97625 10.3751H3.25L0.625 13.0001V16.5001C0.625 17.4626 1.40375 18.2501 2.36625 18.2501H14.625C15.5875 18.2501 16.375 17.4714 16.375 16.5001V13.0001L13.75 10.3751ZM14.625 16.5001H2.375V15.6251H14.625V16.5001ZM7.9225 12.1426C8.26375 12.4839 8.815 12.4839 9.15625 12.1426L14.7213 6.57763C15.0625 6.23638 15.0625 5.68513 14.7213 5.34388L10.39 1.01263C10.0575 0.662628 9.50625 0.662628 9.165 1.00388L3.59125 6.57763C3.25 6.91888 3.25 7.47013 3.59125 7.81138L7.9225 12.1426ZM9.7775 2.85888L12.875 5.95638L8.54375 10.2876L5.44625 7.19013L9.7775 2.85888Z" fill="#11263C"/>
</svg>
